Predictors of ctDNA positivity
…
# A tibble: 1 × 1
  unique_participants
                <int>
1                  39

#timepoints of positivity. 
subset_data |>
  filter(dtc_ever == 1) |>
  select(participant_id, timepoint)

# A tibble: 249 × 2
   participant_id timepoint        
   <chr>          <chr>            
 1 28115-16-015   SURMOUNT-Baseline
 2 28115-16-015   Year 1 Follow Up 
 3 28115-16-015   Year 2 Follow Up 
 4 28115-16-015   Year 3 Follow Up 
 5 28115-16-015   CLEVER-Baseline  
 6 28115-16-015   C6               
 7 28115-16-015   6M F/U           
 8 28115-16-015   12M F/U          
 9 28115-16-015   18M F/U          
10 28115-16-015   24M F/U          
# ℹ 239 more rows
…
